{
  "一": {
    "on": "イチ, イツ",
    "kun": "ひと",
    "grade": 1,
    "stroke": 1,
    "translate": "one"
  },
  "右": {
    "on": "ウ, ユウ",
    "kun": "みぎ",
    "grade": 1,
    "stroke": 5,
    "translate": "right"
  },
  "雨": {
    "on": "ウ",
    "kun": "あめ, あま",
    "grade": 1,
    "stroke": 8,
    "translate": "rain"
  },
  "円": {
    "on": "エン",
    "kun": "まる-い",
    "grade": 1,
    "stroke": 4,
    "translate": "round, yen"
  },
  "王": {
    "on": "オウ",
    "grade": 1,
    "stroke": 4,
    "translate": "king"
  },
  "音": {
    "on": "オン, イン",
    "kun": "おと, ね",
    "grade": 1,
    "stroke": 9,
    "translate": "sound"
  },
  "気": {
    "on": "キ, ケ",
    "grade": 1,
    "stroke": 6,
    "translate": "feeling, energy"
  },
  "学": {
    "on": "ガク",
    "kun": "まな-ぶ",
    "grade": 1,
    "stroke": 8,
    "translate": "study"
  },
  "火": {
    "on": "カ",
    "kun": "ひ",
    "grade": 1,
    "stroke": 4,
    "translate": "fire"
  },
  "月": {
    "on": "ゲツ, ガツ",
    "kun": "つき",
    "grade": 1,
    "stroke": 4,
    "translate": "month, moon"
  },
  "休": {
    "on": "キュウ",
    "kun": "やす-む",
    "grade": 1,
    "stroke": 6,
    "translate": "rest"
  },
  "見": {
    "on": "ケン",
    "kun": "み-る",
    "grade": 1,
    "stroke": 7,
    "translate": "see"
  },
  "校": {
    "on": "コウ",
    "grade": 1,
    "stroke": 10,
    "translate": "school"
  },
  "山": {
    "on": "サン",
    "kun": "やま",
    "grade": 1,
    "stroke": 3,
    "translate": "mountain"
  },
  "子": {
    "on": "シ, ス",
    "kun": "こ",
    "grade": 1,
    "stroke": 3,
    "translate": "child"
  },
  "字": {
    "on": "ジ",
    "kun": "あざ",
    "grade": 1,
    "stroke": 6,
    "translate": "letter"
  },
  "出": {
    "on": "シュツ, スイ",
    "kun": "で-る",
    "grade": 1,
    "stroke": 5,
    "translate": "exit"
  },
  "人": {
    "on": "ジン, ニン",
    "kun": "ひと",
    "grade": 1,
    "stroke": 2,
    "translate": "person"
  },
  "生": {
    "on": "セイ, ショウ",
    "kun": "い-きる",
    "grade": 1,
    "stroke": 5,
    "translate": "life"
  },
  "夕": {
    "on": "セキ",
    "kun": "ゆう",
    "grade": 1,
    "stroke": 3,
    "translate": "evening"
  },
  "大": {
    "on": "ダイ",
    "kun": "おお",
    "grade": 1,
    "stroke": 3,
    "translate": "large"
  },
  "中": {
    "on": "チュウ",
    "kun": "なか",
    "grade": 1,
    "stroke": 4,
    "translate": "middle"
  },
  "虫": {
    "on": "チュウ",
    "kun": "むし",
    "grade": 1,
    "stroke": 4,
    "translate": "insect"
  },
  "田": {
    "on": "デン",
    "kun": "た",
    "grade": 1,
    "stroke": 5,
    "translate": "rice paddy"
  },
  "日": {
    "on": "ニチ",
    "kun": "ひ",
    "grade": 1,
    "stroke": 4,
    "translate": "day"
  },
  "木": {
    "on": "ボク, モク",
    "kun": "き",
    "grade": 1,
    "stroke": 4,
    "translate": "tree"
  },
  "本": {
    "on": "ホン",
    "kun": "もと",
    "grade": 1,
    "stroke": 5,
    "translate": "book"
  },
  "名": {
    "on": "メイ, ミョウ",
    "kun": "な",
    "grade": 1,
    "stroke": 6,
    "translate": "name"
  },
  "力": {
    "on": "リョク, リキ",
    "kun": "ちから",
    "grade": 1,
    "stroke": 2,
    "translate": "power"
  },



  "紙": {
    "on": "シ",
    "kun": "かみ",
    "translate": "paper"
  },
  "版": {
    "on": "ハン",
    "kun": "ハン",
    "translate": "edition, version, printing block"
  },
  "読": {
    "on": "トク",
    "kun": "よ-む",
    "translate": "read"
  },
  "水": {
    "on": "スイ",
    "kun": "みず",
    "translate": "water"
  },
  "試": {
    "on": "シ",
    "kun": "ため-す",
    "translate": "test, try, trial"
  }
}